%YAML 1.1
%TAG !u! tag:unity3d.com,2011:
--- !u!1001 &2739293740567427406
PrefabInstance:
  m_ObjectHideFlags: 0
  serializedVersion: 2
  m_Modification:
    m_TransformParent: {fileID: 0}
    m_Modifications:
    - target: {fileID: 636381004135924719, guid: be4545189848dbb44996f7fc9b4d53cb,
        type: 3}
      propertyPath: m_Name
      value: ExplodudeGreen
      objectReference: {fileID: 0}
    - target: {fileID: 636381004135924719, guid: be4545189848dbb44996f7fc9b4d53cb,
        type: 3}
      propertyPath: m_IsActive
      value: 1
      objectReference: {fileID: 0}
    - target: {fileID: 638965659756307837, guid: be4545189848dbb44996f7fc9b4d53cb,
        type: 3}
      propertyPath: m_RootOrder
      value: 0
      objectReference: {fileID: 0}
    - target: {fileID: 638965659756307837, guid: be4545189848dbb44996f7fc9b4d53cb,
        type: 3}
      propertyPath: m_LocalPosition.x
      value: 0
      objectReference: {fileID: 0}
    - target: {fileID: 638965659756307837, guid: be4545189848dbb44996f7fc9b4d53cb,
        type: 3}
      propertyPath: m_LocalPosition.y
      value: 0
      objectReference: {fileID: 0}
    - target: {fileID: 638965659756307837, guid: be4545189848dbb44996f7fc9b4d53cb,
        type: 3}
      propertyPath: m_LocalPosition.z
      value: 0
      objectReference: {fileID: 0}
    - target: {fileID: 638965659756307837, guid: be4545189848dbb44996f7fc9b4d53cb,
        type: 3}
      propertyPath: m_LocalRotation.w
      value: 1
      objectReference: {fileID: 0}
    - target: {fileID: 638965659756307837, guid: be4545189848dbb44996f7fc9b4d53cb,
        type: 3}
      propertyPath: m_LocalRotation.x
      value: 0
      objectReference: {fileID: 0}
    - target: {fileID: 638965659756307837, guid: be4545189848dbb44996f7fc9b4d53cb,
        type: 3}
      propertyPath: m_LocalRotation.y
      value: 0
      objectReference: {fileID: 0}
    - target: {fileID: 638965659756307837, guid: be4545189848dbb44996f7fc9b4d53cb,
        type: 3}
      propertyPath: m_LocalRotation.z
      value: 0
      objectReference: {fileID: 0}
    - target: {fileID: 638965659756307837, guid: be4545189848dbb44996f7fc9b4d53cb,
        type: 3}
      propertyPath: m_LocalEulerAnglesHint.x
      value: 0
      objectReference: {fileID: 0}
    - target: {fileID: 638965659756307837, guid: be4545189848dbb44996f7fc9b4d53cb,
        type: 3}
      propertyPath: m_LocalEulerAnglesHint.y
      value: 0
      objectReference: {fileID: 0}
    - target: {fileID: 638965659756307837, guid: be4545189848dbb44996f7fc9b4d53cb,
        type: 3}
      propertyPath: m_LocalEulerAnglesHint.z
      value: 0
      objectReference: {fileID: 0}
    - target: {fileID: 668084860282136159, guid: be4545189848dbb44996f7fc9b4d53cb,
        type: 3}
      propertyPath: Model
      value: 
      objectReference: {fileID: 3375212388978058069}
    - target: {fileID: 668245297844282597, guid: be4545189848dbb44996f7fc9b4d53cb,
        type: 3}
      propertyPath: m_Enabled
      value: 0
      objectReference: {fileID: 0}
    - target: {fileID: 668567461718734757, guid: be4545189848dbb44996f7fc9b4d53cb,
        type: 3}
      propertyPath: PlayerID
      value: Player3
      objectReference: {fileID: 0}
    - target: {fileID: 668567461718734757, guid: be4545189848dbb44996f7fc9b4d53cb,
        type: 3}
      propertyPath: CharacterAnimator
      value: 
      objectReference: {fileID: 5298150500160070142}
    - target: {fileID: 4628935060738273038, guid: be4545189848dbb44996f7fc9b4d53cb,
        type: 3}
      propertyPath: m_IsActive
      value: 1
      objectReference: {fileID: 0}
    - target: {fileID: 8237206009395236699, guid: be4545189848dbb44996f7fc9b4d53cb,
        type: 3}
      propertyPath: RemapContrastOne
      value: 50
      objectReference: {fileID: 0}
    - target: {fileID: 8237206009395236699, guid: be4545189848dbb44996f7fc9b4d53cb,
        type: 3}
      propertyPath: RemapHueShiftOne
      value: 0
      objectReference: {fileID: 0}
    - target: {fileID: 8237206009395236699, guid: be4545189848dbb44996f7fc9b4d53cb,
        type: 3}
      propertyPath: RemapSaturationOne
      value: -100
      objectReference: {fileID: 0}
    - target: {fileID: 8930965862252609463, guid: be4545189848dbb44996f7fc9b4d53cb,
        type: 3}
      propertyPath: m_IsActive
      value: 0
      objectReference: {fileID: 0}
    m_RemovedComponents: []
  m_SourcePrefab: {fileID: 100100000, guid: be4545189848dbb44996f7fc9b4d53cb, type: 3}
--- !u!1 &3375212388978058069 stripped
GameObject:
  m_CorrespondingSourceObject: {fileID: 636349966254610971, guid: be4545189848dbb44996f7fc9b4d53cb,
    type: 3}
  m_PrefabInstance: {fileID: 2739293740567427406}
  m_PrefabAsset: {fileID: 0}
--- !u!4 &6137587079883372124 stripped
Transform:
  m_CorrespondingSourceObject: {fileID: 8299848010699984658, guid: be4545189848dbb44996f7fc9b4d53cb,
    type: 3}
  m_PrefabInstance: {fileID: 2739293740567427406}
  m_PrefabAsset: {fileID: 0}
--- !u!1001 &7094991029250844574
PrefabInstance:
  m_ObjectHideFlags: 0
  serializedVersion: 2
  m_Modification:
    m_TransformParent: {fileID: 6137587079883372124}
    m_Modifications:
    - target: {fileID: -8250559170200734288, guid: 3929d93282f993d4594e89a256ad4b81,
        type: 3}
      propertyPath: m_Materials.Array.data[0]
      value: 
      objectReference: {fileID: 2100000, guid: 74196bb0a3305b54c81e81dd68f37a88, type: 2}
    - target: {fileID: -6057140222963153312, guid: 3929d93282f993d4594e89a256ad4b81,
        type: 3}
      propertyPath: m_Controller
      value: 
      objectReference: {fileID: 9100000, guid: 21e24e108a8ce1945aeff399a6d689b5, type: 2}
    - target: {fileID: -4216859302048453862, guid: 3929d93282f993d4594e89a256ad4b81,
        type: 3}
      propertyPath: m_RootOrder
      value: 0
      objectReference: {fileID: 0}
    - target: {fileID: -4216859302048453862, guid: 3929d93282f993d4594e89a256ad4b81,
        type: 3}
      propertyPath: m_LocalScale.x
      value: 0.5
      objectReference: {fileID: 0}
    - target: {fileID: -4216859302048453862, guid: 3929d93282f993d4594e89a256ad4b81,
        type: 3}
      propertyPath: m_LocalScale.y
      value: 0.5
      objectReference: {fileID: 0}
    - target: {fileID: -4216859302048453862, guid: 3929d93282f993d4594e89a256ad4b81,
        type: 3}
      propertyPath: m_LocalScale.z
      value: 0.5
      objectReference: {fileID: 0}
    - target: {fileID: -4216859302048453862, guid: 3929d93282f993d4594e89a256ad4b81,
        type: 3}
      propertyPath: m_LocalPosition.x
      value: 0
      objectReference: {fileID: 0}
    - target: {fileID: -4216859302048453862, guid: 3929d93282f993d4594e89a256ad4b81,
        type: 3}
      propertyPath: m_LocalPosition.y
      value: 0
      objectReference: {fileID: 0}
    - target: {fileID: -4216859302048453862, guid: 3929d93282f993d4594e89a256ad4b81,
        type: 3}
      propertyPath: m_LocalPosition.z
      value: 0
      objectReference: {fileID: 0}
    - target: {fileID: -4216859302048453862, guid: 3929d93282f993d4594e89a256ad4b81,
        type: 3}
      propertyPath: m_LocalRotation.w
      value: 1
      objectReference: {fileID: 0}
    - target: {fileID: -4216859302048453862, guid: 3929d93282f993d4594e89a256ad4b81,
        type: 3}
      propertyPath: m_LocalRotation.x
      value: -0
      objectReference: {fileID: 0}
    - target: {fileID: -4216859302048453862, guid: 3929d93282f993d4594e89a256ad4b81,
        type: 3}
      propertyPath: m_LocalRotation.y
      value: -0
      objectReference: {fileID: 0}
    - target: {fileID: -4216859302048453862, guid: 3929d93282f993d4594e89a256ad4b81,
        type: 3}
      propertyPath: m_LocalRotation.z
      value: -0
      objectReference: {fileID: 0}
    - target: {fileID: -4216859302048453862, guid: 3929d93282f993d4594e89a256ad4b81,
        type: 3}
      propertyPath: m_LocalEulerAnglesHint.x
      value: 0
      objectReference: {fileID: 0}
    - target: {fileID: -4216859302048453862, guid: 3929d93282f993d4594e89a256ad4b81,
        type: 3}
      propertyPath: m_LocalEulerAnglesHint.y
      value: 0
      objectReference: {fileID: 0}
    - target: {fileID: -4216859302048453862, guid: 3929d93282f993d4594e89a256ad4b81,
        type: 3}
      propertyPath: m_LocalEulerAnglesHint.z
      value: 0
      objectReference: {fileID: 0}
    - target: {fileID: -4141795261518582091, guid: 3929d93282f993d4594e89a256ad4b81,
        type: 3}
      propertyPath: m_Materials.Array.data[0]
      value: 
      objectReference: {fileID: 2100000, guid: 74196bb0a3305b54c81e81dd68f37a88, type: 2}
    - target: {fileID: -2154999956070557096, guid: 3929d93282f993d4594e89a256ad4b81,
        type: 3}
      propertyPath: m_Materials.Array.data[0]
      value: 
      objectReference: {fileID: 2100000, guid: 74196bb0a3305b54c81e81dd68f37a88, type: 2}
    - target: {fileID: -2050006980461810219, guid: 3929d93282f993d4594e89a256ad4b81,
        type: 3}
      propertyPath: m_Materials.Array.data[0]
      value: 
      objectReference: {fileID: 2100000, guid: 6ce0983a87070e34aba1efd33a887c41, type: 2}
    - target: {fileID: -1961844020717896663, guid: 3929d93282f993d4594e89a256ad4b81,
        type: 3}
      propertyPath: m_Materials.Array.data[0]
      value: 
      objectReference: {fileID: 2100000, guid: 74196bb0a3305b54c81e81dd68f37a88, type: 2}
    - target: {fileID: -927199367670048503, guid: 3929d93282f993d4594e89a256ad4b81,
        type: 3}
      propertyPath: m_Name
      value: MMExplodude
      objectReference: {fileID: 0}
    - target: {fileID: 68665940953575000, guid: 3929d93282f993d4594e89a256ad4b81,
        type: 3}
      propertyPath: m_Materials.Array.data[0]
      value: 
      objectReference: {fileID: 2100000, guid: 1acba335a05d34b44978c62def7d37d4, type: 2}
    - target: {fileID: 855583910590500132, guid: 3929d93282f993d4594e89a256ad4b81,
        type: 3}
      propertyPath: m_Materials.Array.data[0]
      value: 
      objectReference: {fileID: 2100000, guid: 1acba335a05d34b44978c62def7d37d4, type: 2}
    - target: {fileID: 2599598716182501315, guid: 3929d93282f993d4594e89a256ad4b81,
        type: 3}
      propertyPath: m_Materials.Array.data[0]
      value: 
      objectReference: {fileID: 2100000, guid: 74196bb0a3305b54c81e81dd68f37a88, type: 2}
    - target: {fileID: 4060825886788870107, guid: 3929d93282f993d4594e89a256ad4b81,
        type: 3}
      propertyPath: m_Materials.Array.data[0]
      value: 
      objectReference: {fileID: 2100000, guid: 1acba335a05d34b44978c62def7d37d4, type: 2}
    - target: {fileID: 4468850574140991331, guid: 3929d93282f993d4594e89a256ad4b81,
        type: 3}
      propertyPath: m_Materials.Array.data[0]
      value: 
      objectReference: {fileID: 2100000, guid: 1acba335a05d34b44978c62def7d37d4, type: 2}
    - target: {fileID: 6296683989071302556, guid: 3929d93282f993d4594e89a256ad4b81,
        type: 3}
      propertyPath: m_Materials.Array.data[0]
      value: 
      objectReference: {fileID: 2100000, guid: 6ce0983a87070e34aba1efd33a887c41, type: 2}
    m_RemovedComponents: []
  m_SourcePrefab: {fileID: 100100000, guid: 3929d93282f993d4594e89a256ad4b81, type: 3}
--- !u!95 &5298150500160070142 stripped
Animator:
  m_CorrespondingSourceObject: {fileID: -6057140222963153312, guid: 3929d93282f993d4594e89a256ad4b81,
    type: 3}
  m_PrefabInstance: {fileID: 7094991029250844574}
  m_PrefabAsset: {fileID: 0}
